<?xml version="1.0" encoding="utf-8"?>
<!-- Generator: Adobe Illustrator 22.1.0, SVG Export Plug-In . SVG Version: 6.00 Build 0)  -->
<svg version="1.1" id="Слой_1" xmlns="http://www.w3.org/2000/svg" xmlns:xlink="http://www.w3.org/1999/xlink" x="0px" y="0px"
	 viewBox="0 0 115.9 116.3" style="enable-background:new 0 0 115.9 116.3;" xml:space="preserve">
<style type="text/css">
	.st0{fill:#FF8F2D;}
	.st1{fill:#D14627;}
	.st2{fill:#FF672D;}
	.st3{fill:#97D422;}
	.st4{fill:#00943E;}
	.st5{fill:#6EA340;}
	.st6{fill:#4FC2B1;}
	.st7{fill:#27988A;}
	.st8{fill:#00757F;}
	.st9{fill:#DF1E83;}
	.st10{fill:#B4008C;}
	.st11{fill:#853574;}
</style>
<path class="st0" d="M58.4,82.8l-13-5.3L32.6,90.3l25.7,25.8L84,90.3L71.2,77.5L58.4,82.8z"/>
<path class="st1" d="M58.3,98.3l-23.9-9.7l-1.8,1.7l25.7,25.8L84,90.3l-2-1.9L58.3,98.3z"/>
<path class="st2" d="M58.4,98.3L58.2,116l0.1,0.1L84,90.3l-1.9-1.9L58.4,98.3z"/>
<path class="st3" d="M32.6,26l12.8,12.8l12.8-5.3l13,5.3L84,26L58.3,0.3L32.6,26z"/>
<path class="st4" d="M32.6,26l2,2l23.7-10l23.9,9.8L84,26L58.3,0.3L32.6,26z"/>
<path class="st5" d="M32.6,26l1.9,1.9L58.2,18l0.2-17.7h-0.1L32.6,26z"/>
<path class="st6" d="M77.4,45.2l5.3,12.7L77.4,71l12.8,12.8l25.7-25.7L90.2,32.4L77.4,45.2z"/>
<path class="st7" d="M88.2,34.3l10,23.8L88.4,82l1.8,1.8l25.7-25.7L90.2,32.4L88.2,34.3z"/>
<path class="st8" d="M88.3,34.3l9.9,23.6l17.7,0.2L90.2,32.4L88.3,34.3z"/>
<path class="st9" d="M0.3,58.1L26,83.8l12.8-12.9l-5.3-12.7l5.3-13L26,32.4L0.3,58.1z"/>
<path class="st10" d="M0.3,58.1L26,83.8l2-2L18,58.1l9.8-24L26,32.4L0.3,58.1z"/>
<path class="st11" d="M0.3,58.1L26,83.8l1.9-2L18,58.2L0.3,58.1L0.3,58.1z"/>
</svg>
